module gitlab.com/rodrigoodhin/fiber-api

go 1.17

require (
	github.com/andybalholm/brotli v1.0.2 // indirect
	github.com/gofiber/fiber/v2 v2.20.2 // indirect
	github.com/jinzhu/inflection v1.0.0 // indirect
	github.com/jinzhu/now v1.1.2 // indirect
	github.com/klauspost/compress v1.13.4 // indirect
	github.com/mattn/go-sqlite3 v1.14.8 // indirect
	github.com/valyala/bytebufferpool v1.0.0 // indirect
	github.com/valyala/fasthttp v1.29.0 // indirect
	github.com/valyala/tcplisten v1.0.0 // indirect
	golang.org/x/sys v0.0.0-20210514084401-e8d321eab015 // indirect
	gorm.io/driver/sqlite v1.1.6 // indirect
	gorm.io/gorm v1.21.16 // indirect
)
